﻿#한국컴패션
127.0.0.1	auth.compassionko.org	
127.0.0.1	www.compassionko.org
127.0.0.1	mate.compassionko.org
127.0.0.1	m.compassionko.org

#기존사이트
127.0.0.1	mate.compassion.or.kr
127.0.0.1	www.compassion.or.kr
127.0.0.1	www.iamcompassion.or.kr
127.0.0.1	cms.compassion.or.kr



#yes24
127.0.0.1 	mhub.yes24.com
127.0.0.1 	image.yes24.com

